<?xml version="1.0" encoding="UTF-8"?>
<svg width="36px" height="34px" viewBox="0 0 36 34" version="1.1" xmlns="http://www.w3.org/2000/svg" xmlns:xlink="http://www.w3.org/1999/xlink">
    <!-- Generator: Sketch 51.1 (57501) - http://www.bohemiancoding.com/sketch -->
    <title>Group</title>
    <desc>Created with Sketch.</desc>
    <defs></defs>
    <g id="Page-1" stroke="none" stroke-width="1" fill="none" fill-rule="evenodd">
        <g id="Home_02" transform="translate(-969.000000, -234.000000)" fill="#FFFFFF" fill-rule="nonzero">
            <g id="Group" transform="translate(969.000000, 234.000000)">
                <path d="M18.4938605,21.5923721 L18.4938605,23.0051628 C18.4938605,23.2404186 18.6809767,23.4313023 18.9124651,23.4313023 C19.1439535,23.4313023 19.3310698,23.2404186 19.3310698,23.0051628 L19.3310698,21.5923721 L20.3202326,21.5923721 C20.9468837,21.5923721 21.4571628,21.0728837 21.4571628,20.4345116 L21.4571628,19.4294419 L22.8444186,19.4294419 C23.075907,19.4294419 23.2630233,19.2385581 23.2630233,19.0033023 C23.2630233,18.7680465 23.075907,18.5771628 22.8444186,18.5771628 L21.4571628,18.5771628 L21.4571628,17.6160465 L22.8444186,17.6160465 C23.075907,17.6160465 23.2630233,17.4251628 23.2630233,17.189907 C23.2630233,16.9546512 23.075907,16.7637674 22.8444186,16.7637674 L21.4571628,16.7637674 L21.4571628,15.8030698 L22.8444186,15.8030698 C23.075907,15.8030698 23.2630233,15.612186 23.2630233,15.3769302 C23.2630233,15.1416744 23.075907,14.9507907 22.8444186,14.9507907 L21.4571628,14.9507907 L21.4571628,13.9967907 C21.4571628,13.3584186 20.9468837,12.8389302 20.3202326,12.8389302 L19.3310698,12.8389302 L19.3310698,11.4261395 C19.3310698,11.1908837 19.1439535,11 18.9124651,11 C18.6809767,11 18.4938605,11.1908837 18.4938605,11.4261395 L18.4938605,12.8393488 L17.549907,12.8393488 L17.549907,11.4265581 C17.549907,11.1913023 17.3627907,11.0004186 17.1313023,11.0004186 C16.899814,11.0004186 16.7126977,11.1913023 16.7126977,11.4265581 L16.7126977,12.8393488 L15.7691628,12.8393488 L15.7691628,11.4265581 C15.7691628,11.1913023 15.5820465,11.0004186 15.3505581,11.0004186 C15.1190698,11.0004186 14.9319535,11.1913023 14.9319535,11.4265581 L14.9319535,12.8393488 L13.9432093,12.8393488 C13.3161395,12.8393488 12.8058605,13.3588372 12.8058605,13.9972093 L12.8058605,15.1843721 L11.4186047,15.1843721 C11.1871163,15.1843721 11,15.3752558 11,15.6105116 C11,15.8457674 11.1871163,16.0366512 11.4186047,16.0366512 L12.8058605,16.0366512 L12.8058605,16.9969302 L11.4186047,16.9969302 C11.1871163,16.9969302 11,17.187814 11,17.4230698 C11,17.6583256 11.1871163,17.8492093 11.4186047,17.8492093 L12.8058605,17.8492093 L12.8058605,18.8103256 L11.4186047,18.8103256 C11.1871163,18.8103256 11,19.0012093 11,19.2364651 C11,19.4717209 11.1871163,19.6626047 11.4186047,19.6626047 L12.8058605,19.6626047 L12.8058605,20.434093 C12.8058605,21.0724651 13.3161395,21.5919535 13.9432093,21.5919535 L14.9319535,21.5919535 L14.9319535,23.0047442 C14.9319535,23.24 15.1190698,23.4308837 15.3505581,23.4308837 C15.5820465,23.4308837 15.7691628,23.24 15.7691628,23.0047442 L15.7691628,21.5923721 L16.7126977,21.5923721 L16.7126977,23.0051628 C16.7126977,23.2404186 16.899814,23.4313023 17.1313023,23.4313023 C17.3627907,23.4313023 17.549907,23.2404186 17.549907,23.0051628 L17.549907,21.5923721 L18.4938605,21.5923721 Z M13.6430698,20.4345116 L13.6430698,13.9967907 C13.6430698,13.8285116 13.7774419,13.6912093 13.9432093,13.6912093 L20.3202326,13.6912093 C20.4855814,13.6912093 20.6199535,13.8285116 20.6199535,13.9967907 L20.6199535,20.4345116 C20.6199535,20.6027907 20.4855814,20.740093 20.3202326,20.740093 L13.9432093,20.740093 C13.7774419,20.740093 13.6430698,20.6032093 13.6430698,20.4345116 Z" id="Shape"></path>
                <path d="M20.6214419,19.2966047 L20.6214419,14.4261395 C20.6214419,14.1908837 20.4343256,14 20.2028372,14 L15.4186047,14 C15.1871163,14 15,14.1908837 15,14.4261395 L15,19.2966047 C15,19.5318605 15.1871163,19.7227442 15.4186047,19.7227442 L20.2028372,19.7227442 C20.433907,19.7227442 20.6214419,19.5318605 20.6214419,19.2966047 Z M19.7842326,18.8700465 L15.8372093,18.8700465 L15.8372093,14.8518605 L19.7842326,14.8518605 L19.7842326,18.8700465 Z" id="Shape"></path>
                <path d="M34.1903721,22.8298605 L34.1866047,17.5755349 C34.1866047,17.3402791 33.9990698,17.149814 33.768,17.149814 L31.4087442,17.149814 C31.448093,16.9254419 31.4698605,16.6943721 31.4698605,16.4582791 C31.4698605,16.4386047 31.4677674,16.4189302 31.4673488,16.3992558 C31.4673488,16.3950698 31.4698605,16.3913023 31.4698605,16.3866977 C31.4698605,14.834093 30.5535349,13.5046047 29.2604651,12.9583256 C29.0524186,12.8653953 28.8351628,12.7904651 28.6091163,12.7402326 C29.1993488,12.0541395 29.5329767,11.1608372 29.5329767,10.201814 C29.5329767,9.94604651 29.5078605,9.69613953 29.461814,9.45418605 L32.1107442,9.45418605 C32.3422326,9.45418605 32.5293488,9.26330233 32.5293488,9.02804651 L32.5293488,3.27432558 C33.2284186,3.08637209 33.75,2.44381395 33.7533488,1.674 C33.7566977,0.755162791 33.0245581,0.00418604651 32.116186,0 C31.2166047,0 30.4811163,0.745116279 30.4773488,1.66144186 C30.4744186,2.43293023 30.9922326,3.07967442 31.6921395,3.27181395 L31.6921395,8.60148837 L29.1926512,8.60148837 C28.7573023,7.62027907 27.938093,6.86595349 26.9363721,6.55618605 L26.9313488,3.33795349 C27.6308372,3.15 28.1524186,2.50744186 28.1557674,1.73804651 C28.1591163,0.818790698 27.4269767,0.0673953488 26.518186,0.063627907 C25.618186,0.063627907 24.8835349,0.809162791 24.880186,1.72506977 C24.878093,2.17046512 25.0467907,2.58990698 25.3548837,2.90553488 C25.562093,3.11818605 25.8174419,3.26051163 26.0945581,3.33544186 L26.0995814,6.40925581 C26.0393023,6.40632558 25.9802791,6.39962791 25.9191628,6.39962791 C25.7002326,6.39962791 25.4813023,6.42348837 25.2653023,6.46618605 C25.1376279,4.54897674 23.6176744,3.02860465 21.7632558,3.02860465 C21.7532093,3.02860465 21.744,3.03404651 21.7343721,3.03446512 C21.694186,3.0332093 21.6552558,3.02860465 21.6150698,3.02860465 C19.6894884,3.02860465 18.0008372,4.92111628 18.0008372,7.07860465 L18.0008372,9.42865116 C18.0008372,9.66390698 18.1879535,9.8547907 18.4194419,9.8547907 C18.6509302,9.8547907 18.8380465,9.66390698 18.8380465,9.42865116 L18.8380465,7.07860465 C18.8380465,5.37488372 20.1357209,3.88088372 21.6150698,3.88088372 C23.1463256,3.88088372 24.3925116,5.20367442 24.3925116,6.82953488 C24.3925116,6.87683721 24.3887442,6.92330233 24.385814,6.96934884 L24.3824651,7.01372093 C24.3786977,7.06813953 24.3887442,7.12046512 24.4046512,7.17069767 C24.2024651,8.52655814 23.0965116,9.56804651 21.7632558,9.56804651 C21.5317674,9.56804651 21.3446512,9.75893023 21.3446512,9.99418605 C21.3446512,10.2294419 21.5317674,10.4203256 21.7632558,10.4203256 C23.4950233,10.4203256 24.9346047,9.09544186 25.2226047,7.35990698 C25.4532558,7.29544186 25.6855814,7.25148837 25.9195814,7.25148837 C27.4504186,7.25148837 28.696186,8.57469767 28.696186,10.2005581 C28.696186,11.25 28.185907,12.1977209 27.3311163,12.7352093 C27.3223256,12.7406512 27.3168837,12.7494419 27.3085116,12.7557209 C25.6784651,13.0763721 24.4406512,14.5804186 24.4406512,16.3854419 C24.4406512,16.6206977 24.6277674,16.8115814 24.8592558,16.8115814 C25.0907442,16.8115814 25.2778605,16.6206977 25.2778605,16.3854419 C25.2778605,14.8177674 26.4788372,13.5422791 27.9552558,13.5422791 C28.3081395,13.5422791 28.6442791,13.6167907 28.9523721,13.7490698 C29.9394419,14.202 30.6326512,15.2451628 30.6326512,16.4574419 C30.6326512,18.0828837 29.3868837,19.4056744 27.8556279,19.4056744 C27.7815349,19.4056744 27.7086977,19.4002326 27.6366977,19.3939535 C27.4474884,19.3734419 27.2666512,19.4948372 27.2042791,19.6806977 C27.1423256,19.8657209 27.2122326,20.0704186 27.373814,20.1767442 C28.1804651,20.7054419 28.6664651,21.6096279 28.6907442,22.6063256 C28.6823721,22.639814 28.6706512,22.6720465 28.6706512,22.7084651 C28.6706512,24.2769767 27.4692558,25.5524651 25.9928372,25.5524651 C24.5168372,25.5524651 23.3158605,24.2765581 23.3158605,22.7084651 C23.3158605,22.4732093 23.1287442,22.2823256 22.8972558,22.2823256 C22.6657674,22.2823256 22.4786512,22.4732093 22.4786512,22.7084651 C22.4786512,24.0894419 23.2032558,25.294186 24.2727907,25.9283721 C24.2933023,25.9978605 24.3121395,26.0573023 24.3288837,26.1079535 C24.3782791,26.2607442 24.3916744,26.3017674 24.3916744,26.498093 C24.3916744,28.1239535 23.1454884,29.4471628 21.6142326,29.4471628 C20.0829767,29.4471628 18.8372093,28.1239535 18.8372093,26.498093 C18.8372093,26.475907 18.8284186,26.4570698 18.8250698,26.4361395 C18.8284186,26.4152093 18.8372093,26.3963721 18.8372093,26.374186 L18.8372093,24.1304651 C18.8372093,23.8952093 18.650093,23.7043256 18.4186047,23.7043256 C18.1871163,23.7043256 18,23.8952093 18,24.1304651 L18,26.374186 C18,26.3963721 18.0087907,26.4152093 18.0121395,26.4361395 C18.0087907,26.4570698 18,26.475907 18,26.498093 C18,28.3194419 19.2248372,29.844 20.8527907,30.2132093 L20.8527907,31.6046512 C20.8527907,31.839907 21.039907,32.0307907 21.2709767,32.0307907 L27.7266977,32.0349767 C27.9150698,32.7449302 28.5484186,33.2723721 29.3035814,33.2723721 L29.3090233,33.2723721 C30.2119535,33.268186 30.944093,32.5172093 30.9407442,31.5979535 C30.9369767,30.6820465 30.201907,29.9373488 29.2964651,29.9373488 C28.5396279,29.9406977 27.9092093,30.4710698 27.7246047,31.1831163 L21.69,31.1789302 L21.69,30.2956744 C23.647814,30.2525581 25.2284651,28.5676744 25.2284651,26.4985116 C25.2284651,26.4700465 25.2280465,26.4428372 25.2276279,26.4168837 C25.4536744,26.4629302 25.6847442,26.4859535 25.9183256,26.4859535 C27.9108837,26.4859535 29.5321395,24.7813953 29.5321395,22.6854419 C29.5321395,21.7410698 29.2056279,20.8548837 28.6275349,20.1708837 C29.7594419,19.9105116 30.6933488,19.0900465 31.1554884,18.0016744 L33.3489767,18.0016744 L33.3523256,22.8256744 C32.6536744,23.0136279 32.1325116,23.6557674 32.1291628,24.4251628 C32.125814,25.3444186 32.8575349,26.095814 33.7600465,26.0995814 L33.7663256,26.0995814 C34.665907,26.0995814 35.4013953,25.3540465 35.4051628,24.4373023 C35.4089302,23.6683256 34.8923721,23.0228372 34.1903721,22.8298605 Z M31.3145581,1.6652093 C31.3166512,1.21730233 31.675814,0.852697674 32.1182791,0.852697674 C32.559907,0.854372093 32.917814,1.22190698 32.9161395,1.67106977 C32.9140465,2.11897674 32.5553023,2.48316279 32.1153488,2.48316279 L32.1153488,2.64516279 C32.1149302,2.64516279 32.114093,2.64474419 32.1136744,2.64474419 L32.1124186,2.48316279 C31.6712093,2.48106977 31.3128837,2.11437209 31.3145581,1.6652093 Z M25.717814,1.7284186 C25.7194884,1.28051163 26.0786512,0.915906977 26.5206977,0.915906977 C26.9627442,0.917581395 27.3206512,1.28511628 27.3189767,1.73469767 C27.3168837,2.18218605 26.9577209,2.54637209 26.5173488,2.54637209 L26.5173488,2.5472093 C26.5165116,2.5472093 26.5152558,2.5467907 26.5144186,2.5467907 L26.5144186,2.54637209 C26.3005116,2.54553488 26.1,2.46013953 25.9493023,2.30567442 C25.7990233,2.1512093 25.7169767,1.94609302 25.717814,1.7284186 Z M29.3035814,30.7892093 C29.7435349,30.7892093 30.1022791,31.153814 30.1043721,31.6008837 C30.1060465,32.0504651 29.7477209,32.418 29.3069302,32.4196744 L29.3044186,32.845814 L29.3044186,32.4196744 C28.8640465,32.4196744 28.5048837,32.0550698 28.5027907,31.6075814 C28.5011163,31.1584186 28.8590233,30.7913023 29.3035814,30.7892093 Z M33.7675814,25.2477209 L33.7675814,25.6738605 L33.7646512,25.2477209 C33.3234419,25.2460465 32.9659535,24.8785116 32.9676279,24.4289302 C32.9697209,23.9814419 33.3280465,23.6176744 33.7709302,23.6176744 C34.2125581,23.6193488 34.5704651,23.9860465 34.5692093,24.4347907 C34.5671163,24.8831163 34.2075349,25.2477209 33.7675814,25.2477209 Z" id="Shape"></path>
                <path d="M17.1255436,23.8010233 C16.8940553,23.8010233 16.706939,23.991907 16.706939,24.2271628 L16.706939,26.4708837 C16.706939,26.4926512 16.7157297,26.511907 16.7190785,26.5328372 C16.7157297,26.5537674 16.706939,26.5730233 16.706939,26.5947907 C16.706939,28.2206512 15.4611716,29.5438605 13.9299157,29.5438605 C12.3986599,29.5438605 11.1524739,28.2206512 11.1524739,26.5947907 C11.1524739,26.3988837 11.1658692,26.3578605 11.2152646,26.2046512 C11.2320088,26.154 11.250846,26.0945581 11.2713576,26.0250698 C12.3408925,25.3904651 13.0654971,24.1861395 13.0654971,22.8051628 C13.0654971,22.569907 12.8783809,22.3790233 12.6468925,22.3790233 C12.4154041,22.3790233 12.2282878,22.569907 12.2282878,22.8051628 C12.2282878,24.3736744 11.0277297,25.6491628 9.55131109,25.6491628 C8.07489248,25.6491628 6.87349713,24.3732558 6.87349713,22.8051628 C6.87349713,22.7691628 6.8617762,22.7365116 6.85340411,22.7030233 C6.87810178,21.7063256 7.36410178,20.8021395 8.17033434,20.2734419 C8.33233434,20.1675349 8.40224132,19.9628372 8.33986923,19.7773953 C8.27791574,19.5915349 8.09791574,19.4726512 7.90745062,19.4906512 C7.83503202,19.4969302 7.76219481,19.5023721 7.68852039,19.5023721 C6.15726457,19.5023721 4.91149713,18.1795814 4.91149713,16.5541395 C4.91149713,15.3418605 5.60428783,14.2986977 6.5917762,13.8457674 C6.89986923,13.713907 7.23642736,13.6389767 7.58889248,13.6389767 C9.06531109,13.6389767 10.2662878,14.9144651 10.2662878,16.4821395 C10.2662878,16.7173953 10.4534041,16.9082791 10.6848925,16.9082791 C10.9163809,16.9082791 11.1034971,16.7173953 11.1034971,16.4821395 C11.1034971,14.6771163 9.86526457,13.1726512 8.23563667,12.852 C8.22726457,12.8461395 8.22182271,12.8373488 8.21303202,12.831907 C7.35824132,12.294 6.84796225,11.3466977 6.84796225,10.2972558 C6.84796225,8.67139535 8.09372969,7.34818605 9.6245669,7.34818605 C9.8585669,7.34818605 10.0908925,7.39213953 10.3215436,7.45660465 C10.6095436,9.19213953 12.049125,10.5170233 13.7808925,10.5170233 C14.0123809,10.5170233 14.1994971,10.3261395 14.1994971,10.0908837 C14.1994971,9.85562791 14.0123809,9.66474419 13.7808925,9.66474419 C12.4472181,9.66474419 11.3421018,8.62367442 11.1394971,7.26739535 C11.1554041,7.21716279 11.1654506,7.16483721 11.1616832,7.1104186 L11.1583343,7.06604651 C11.1554041,7.02 11.1516367,6.97353488 11.1516367,6.92623256 C11.1516367,5.30037209 12.3978227,3.9775814 13.9290785,3.9775814 C15.4084274,3.9775814 16.7061018,5.4715814 16.7061018,7.17530233 L16.7061018,9.52534884 C16.7061018,9.76060465 16.8932181,9.95148837 17.1247064,9.95148837 C17.3561948,9.95148837 17.5433111,9.76060465 17.5433111,9.52534884 L17.5433111,7.17530233 C17.5433111,5.30832558 16.2787064,3.64269767 14.6905204,3.22660465 L14.6905204,1.66772093 C14.6905204,1.43246512 14.5034041,1.2415814 14.2723343,1.2415814 L9.49061341,1.23739535 C9.30224132,0.52744186 8.66847388,0 7.90912504,0 C7.00619481,0.00376744186 6.27405527,0.754744186 6.27740411,1.6744186 C6.28117155,2.59032558 7.01624132,3.33502326 7.91540411,3.33502326 L7.92168318,3.33502326 C8.67852039,3.33167442 9.30893899,2.80130233 9.49354364,2.08925581 L13.8537297,2.09302326 L13.8537297,3.12865116 C13.8394971,3.12865116 13.8252646,3.13032558 13.8101948,3.13074419 C13.8001483,3.13032558 13.7913576,3.12488372 13.7813111,3.12488372 C11.9264739,3.12488372 10.4065204,4.64525581 10.2792646,6.56246512 C10.062846,6.51934884 9.84433434,6.49590698 9.62540411,6.49590698 C7.63284597,6.49590698 6.01159016,8.20130233 6.01159016,10.2972558 C6.01159016,10.3843256 6.01745062,10.4709767 6.02289248,10.5567907 L2.6677762,10.5567907 L2.6677762,5.81483721 C3.36768318,5.62269767 3.88549713,4.97595349 3.8825669,4.20404651 C3.87879946,3.28813953 3.14331109,2.54302326 2.23828783,2.54302326 C1.3353576,2.5472093 0.603218062,3.29818605 0.6065669,4.21744186 C0.609915737,4.98683721 1.13149713,5.62981395 1.8305669,5.81734884 L1.8305669,10.9833488 C1.8305669,11.2186047 2.01768318,11.4094884 2.24917155,11.4094884 L6.16940411,11.4094884 C6.32219481,11.9386047 6.58131109,12.4250233 6.93503202,12.836093 C6.70982271,12.8863256 6.4929855,12.9608372 6.2853576,13.0533488 C4.99145062,13.5992093 4.07428783,14.9291163 4.07428783,16.4825581 C4.07428783,16.4871628 4.07679946,16.4909302 4.07679946,16.4951163 C4.07638085,16.5147907 4.07428783,16.5344651 4.07428783,16.5541395 C4.07428783,16.6855814 4.08265992,16.8153488 4.09521806,16.9438605 L3.22996225,16.9438605 C3.06210178,16.2079535 2.41745062,15.6549767 1.63884597,15.6516279 C0.739264574,15.6516279 0.00377620201,16.3967442 8.76015054e-06,17.313907 C-0.00292147241,18.2327442 0.729636667,18.9833023 1.6321483,18.9866512 L1.63926457,18.9866512 C2.37684597,18.9866512 2.99638085,18.4822326 3.19982271,17.7965581 L4.27438085,17.7965581 C4.68293899,19.0343721 5.68131109,19.9837674 6.91619481,20.2675814 C6.33810178,20.9515814 6.01159016,21.8377674 6.01159016,22.7821395 C6.01159016,24.8776744 7.63284597,26.5826512 9.62540411,26.5826512 C9.85940411,26.5826512 10.0900553,26.5596279 10.3161018,26.5135814 C10.3156832,26.5395349 10.3152646,26.5663256 10.3152646,26.5952093 C10.3152646,26.6843721 10.3223809,26.7718605 10.3278227,26.8593488 L7.65419481,26.8576744 C7.64875295,26.8576744 7.6445669,26.8547442 7.63912504,26.8547442 C7.63368318,26.8547442 7.62949713,26.8576744 7.62405527,26.8576744 L3.42042736,26.8547442 C3.23205527,26.1456279 2.59870643,25.6190233 1.8393576,25.6190233 C0.936845969,25.6223721 0.20428783,26.3725116 0.207218062,27.292186 C0.210985504,28.208093 0.946473876,28.9536279 1.84605527,28.9536279 L1.85233434,28.9536279 C2.60917155,28.9502791 3.23875295,28.4194884 3.4233576,27.7070233 L7.22093899,27.7095349 L7.22093899,30.1646512 C6.49842736,30.3358605 5.95507853,30.9922326 5.95172969,31.7783721 C5.94838085,32.6976279 6.68052039,33.4490233 7.58428783,33.4527907 L7.58931109,33.4527907 C8.48931109,33.4527907 9.22396225,32.7072558 9.22731109,31.7913488 C9.22940411,31.3459535 9.06070643,30.9265116 8.75261341,30.6108837 C8.55712504,30.4103721 8.31810178,30.2743256 8.0581483,30.1952093 L8.0581483,27.7099535 L10.4751716,27.7116279 C10.9297762,29.2642326 12.3065669,30.3961395 13.9299157,30.3961395 C15.9228925,30.3961395 17.5441483,28.6907442 17.5441483,26.5947907 C17.5441483,26.5730233 17.5353576,26.5537674 17.5320088,26.5328372 C17.5353576,26.511907 17.5441483,26.4926512 17.5441483,26.4708837 L17.5441483,24.2271628 C17.5441483,23.991907 17.3566134,23.8010233 17.1255436,23.8010233 Z M7.91833434,2.48316279 L7.91540411,2.90930233 L7.91540411,2.48316279 C7.47545062,2.48316279 7.11670643,2.11897674 7.11461341,1.67148837 C7.11293899,1.22190698 7.47126457,0.854372093 7.9145669,0.852697674 C8.35493899,0.852697674 8.71410178,1.21730233 8.71619481,1.6647907 C8.71828783,2.11437209 8.35996225,2.48148837 7.91833434,2.48316279 Z M1.44419481,4.21409302 C1.44252039,3.76451163 1.80084597,3.39697674 2.2441483,3.39530233 C2.68452039,3.39530233 3.04368318,3.75990698 3.0457762,4.20739535 C3.04745062,4.65697674 2.68912504,5.02409302 2.24791574,5.02576744 L2.24791574,5.02618605 C2.24707853,5.02618605 2.24582271,5.02660465 2.2449855,5.02660465 L2.2449855,5.02576744 C1.80503202,5.02618605 1.44586923,4.6615814 1.44419481,4.21409302 Z M1.63926457,18.1339535 L1.63926457,18.560093 L1.63549713,18.1339535 C1.19386923,18.1322791 0.835962249,17.7655814 0.837218062,17.3168372 C0.839311086,16.8685116 1.19847388,16.503907 1.6417762,16.503907 C2.0829855,16.5055814 2.44047388,16.8731163 2.43879946,17.3226977 C2.43712504,17.770186 2.07838085,18.1339535 1.63926457,18.1339535 Z M8.38968318,31.788 C8.38800876,32.235907 8.02884597,32.6005116 7.58889248,32.6005116 L7.58889248,33.0266512 L7.58679946,32.6005116 C7.14475295,32.5988372 6.78684597,32.2313023 6.78852039,31.7817209 C6.79061341,31.3342326 7.1497762,30.9700465 7.59307853,30.9700465 C7.8069855,30.9708837 8.00749713,31.0562791 8.15819481,31.2107442 C8.30847388,31.3652093 8.39052039,31.569907 8.38968318,31.788 Z M1.8485669,28.1009302 L1.84563667,28.5270698 L1.84563667,28.1009302 C1.40526457,28.1009302 1.04610178,27.735907 1.04400876,27.2888372 C1.04275295,26.8396744 1.40107853,26.4725581 1.84605527,26.4708837 C2.28517155,26.4708837 2.64349713,26.8346512 2.64559016,27.2817209 C2.64768318,27.7313023 2.2897762,28.0988372 1.8485669,28.1009302 Z" id="Shape"></path>
            </g>
        </g>
    </g>
</svg>