<?xml version="1.0" encoding="UTF-8"?>
<svg width="26px" height="29px" viewBox="0 0 26 29" version="1.1" xmlns="http://www.w3.org/2000/svg" xmlns:xlink="http://www.w3.org/1999/xlink">
    <!-- Generator: Sketch 51.1 (57501) - http://www.bohemiancoding.com/sketch -->
    <title>Group</title>
    <desc>Created with Sketch.</desc>
    <defs></defs>
    <g id="Page-1" stroke="none" stroke-width="1" fill="none" fill-rule="evenodd">
        <g id="Home_02" transform="translate(-744.000000, -236.000000)">
            <g id="Group" transform="translate(733.000000, 227.000000)">
                <polygon id="Shape" points="33.3714286 30 32.6285714 30 32.6285714 33.1325301 32 33.1325301 33.0285714 35 34 33.1325301 33.3714286 33.1325301"></polygon>
                <path d="M24,0 C10.7707317,0 0,10.7707317 0,24 C0,37.2292683 10.7707317,48 24,48 C37.2292683,48 48,37.2292683 48,24 C48,10.7707317 37.2292683,0 24,0 Z M23.5902439,9.36585366 C30.6731707,9.36585366 36.3512195,12.4682927 36.3512195,16.2731707 C36.3512195,20.0780488 30.6146341,23.1804878 23.5902439,23.1804878 C16.5658537,23.1804878 10.8292683,20.0780488 10.8292683,16.2731707 C10.7707317,12.4097561 16.5073171,9.36585366 23.5902439,9.36585366 Z M11.0634146,19.902439 C12.2926829,23.004878 17.4439024,25.3463415 23.5317073,25.3463415 C29.6195122,25.3463415 34.7707317,23.004878 36,19.902439 C36.1756098,20.3707317 36.2926829,20.897561 36.2926829,21.3658537 C36.2926829,25.1707317 30.5560976,28.2731707 23.5317073,28.2731707 C16.5073171,28.2731707 10.7707317,25.1707317 10.7707317,21.3658537 C10.7707317,20.897561 10.8878049,20.3707317 11.0634146,19.902439 Z M36.2341463,26.5756098 C36.2341463,26.9853659 36.1756098,27.395122 36,27.8634146 C35.5317073,27.5707317 35.004878,27.3365854 34.4195122,27.1609756 C35.1219512,26.5170732 35.6487805,25.8146341 35.9414634,25.1121951 C36.1756098,25.5804878 36.2341463,26.0487805 36.2341463,26.5756098 Z M11.004878,25.0536585 C12.2341463,28.1560976 17.3853659,30.497561 23.4731707,30.497561 C25.2292683,30.497561 26.8682927,30.3219512 28.3902439,29.9707317 C28.0390244,30.6731707 27.8634146,31.4341463 27.9219512,32.3121951 C27.9219512,32.5463415 27.9219512,32.7804878 27.9804878,33.0731707 C26.5756098,33.3658537 25.0536585,33.5414634 23.4731707,33.5414634 C16.3902439,33.5414634 10.7121951,30.4390244 10.7121951,26.6341463 C10.7121951,26.0487805 10.7707317,25.5804878 11.004878,25.0536585 Z M23.4731707,38.6341463 C16.3902439,38.6341463 10.7121951,35.4731707 10.7121951,31.6682927 C10.7121951,31.2 10.8292683,30.6731707 11.004878,30.204878 C12.2341463,33.3073171 17.3853659,35.6487805 23.4731707,35.6487805 C25.3463415,35.6487805 27.102439,35.4731707 28.6829268,35.0634146 C29.2682927,36.0585366 30.1463415,36.8195122 31.2585366,37.1707317 C29.0926829,38.0487805 26.4,38.6341463 23.4731707,38.6341463 Z M33.3073171,36.3512195 C31.0243902,36.3512195 29.1512195,34.5365854 29.1512195,32.3121951 C29.1512195,30.0878049 31.0243902,28.2731707 33.3073171,28.2731707 C35.5902439,28.2731707 37.4634146,30.0878049 37.4634146,32.3121951 C37.4634146,34.5365854 35.5317073,36.3512195 33.3073171,36.3512195 Z" id="Shape"></path>
                <ellipse id="Oval" fill="#FFFFFF" fill-rule="nonzero" cx="24" cy="16" rx="13" ry="7"></ellipse>
                <path d="M24.0297483,28 C31.228833,28 37,25.034965 37,21.3986014 C37,20.951049 36.8810069,20.4475524 36.7025172,20 C35.4530892,22.965035 30.2173913,25.2027972 24.0297483,25.2027972 C17.8421053,25.2027972 12.5469108,22.965035 11.2974828,20 C11.1189931,20.4475524 11,20.951049 11,21.3986014 C11,25.034965 16.8306636,28 24.0297483,28 Z" id="Shape" fill="#FFFFFF" fill-rule="nonzero"></path>
                <path d="M35.7419355,28 C35.9354839,27.4893617 36,27.0425532 36,26.5957447 C36,26.0851064 35.8709677,25.5106383 35.6774194,25 C35.3548387,25.8297872 34.7741935,26.5319149 34,27.2340426 C34.6451613,27.3617021 35.2258065,27.6808511 35.7419355,28 Z" id="Shape" fill="#FFFFFF" fill-rule="nonzero"></path>
                <path d="M23.9933775,34 C25.602649,34 27.0927152,33.8137931 28.5827815,33.5034483 C28.5231788,33.2551724 28.5231788,33.0068966 28.5231788,32.6965517 C28.4635762,31.8275862 28.7019868,30.9586207 29,30.2137931 C27.4503311,30.5862069 25.7218543,30.7724138 23.9933775,30.7724138 C17.7350993,30.7724138 12.5496689,28.2896552 11.2980132,25 C11.1192053,25.4965517 11,26.0551724 11,26.5517241 C11,30.7103448 16.781457,34 23.9933775,34 Z" id="Shape" fill="#FFFFFF" fill-rule="nonzero"></path>
                <path d="M29.3675214,34.6111111 C27.7521368,35 25.957265,35.1666667 24.042735,35.1666667 C17.7606838,35.1666667 12.5555556,32.9444444 11.2991453,30 C11.1196581,30.4444444 11,30.9444444 11,31.3888889 C11,35 16.8034188,38 24.042735,38 C27.034188,38 29.7863248,37.5 32,36.6666667 C30.9230769,36.2222222 29.965812,35.5555556 29.3675214,34.6111111 Z" id="Shape" fill="#FFFFFF" fill-rule="nonzero"></path>
                <path d="M33,28 C30.8028169,28 29,29.7971014 29,32 C29,34.2028986 30.8028169,36 33,36 C35.1971831,36 37,34.2028986 37,32 C37,29.7971014 35.1408451,28 33,28 Z M33.056338,34.6666667 L32.0422535,32.8695652 L32.6619718,32.8695652 L32.6619718,29.8550725 L33.3943662,29.8550725 L33.3943662,32.8695652 L34.0140845,32.8695652 L33.056338,34.6666667 Z" id="Shape" fill="#FFFFFF" fill-rule="nonzero"></path>
            </g>
        </g>
    </g>
</svg>