<?xml version="1.0" encoding="UTF-8"?>
<svg width="36px" height="37px" viewBox="0 0 36 37" version="1.1" xmlns="http://www.w3.org/2000/svg" xmlns:xlink="http://www.w3.org/1999/xlink">
    <!-- Generator: Sketch 51.1 (57501) - http://www.bohemiancoding.com/sketch -->
    <title>Group Copy 8</title>
    <desc>Created with Sketch.</desc>
    <defs></defs>
    <g id="Page-1" stroke="none" stroke-width="1" fill="none" fill-rule="evenodd">
        <g id="Home_01" transform="translate(-747.000000, -777.000000)" fill-rule="nonzero">
            <g id="Group-Copy-8" transform="translate(747.000000, 777.000000)">
                <rect id="Rectangle-path" fill="#000000" x="5.59148936" y="29.2978723" width="14.4" height="2.06808511"></rect>
                <rect id="Rectangle-path" fill="#000000" x="5.59148936" y="24.5106383" width="14.4" height="2.06808511"></rect>
                <rect id="Rectangle-path" fill="#000000" x="5.59148936" y="19.7234043" width="14.4" height="2.06808511"></rect>
                <rect id="Rectangle-path" fill="#000000" x="5.59148936" y="14.9744681" width="14.4" height="2.06808511"></rect>
                <rect id="Rectangle-path" fill="#000000" x="5.59148936" y="10.187234" width="14.4" height="2.06808511"></rect>
                <path d="M34.0468085,2.29787234 L12.8680851,0.191489362 C11.7574468,0.0765957447 10.7617021,0.880851064 10.6468085,1.99148936 L10.3787234,4.9787234 L2.14468085,4.9787234 C1.03404255,4.9787234 0.114893617,5.89787234 0.114893617,7.00851064 L0.114893617,34.5446809 C0.114893617,35.6553191 1.03404255,36.5744681 2.14468085,36.5744681 L23.4382979,36.5744681 C24.5489362,36.5744681 25.4680851,35.6553191 25.4680851,34.5446809 L25.4680851,33.1659574 L30.9446809,33.7021277 C32.0553191,33.8170213 33.0510638,33.012766 33.1659574,31.9021277 L35.8851064,4.51914894 C35.9617021,3.40851064 35.1574468,2.41276596 34.0468085,2.29787234 Z M23.3617021,34.506383 L2.2212766,34.506383 L2.2212766,7.08510638 L23.3617021,7.08510638 L23.3617021,34.506383 Z M31.0595745,31.6723404 L25.4297872,31.0978723 L25.4297872,27.9574468 L27.9957447,28.2255319 L28.187234,26.1574468 L25.4297872,25.8893617 L25.4297872,23.1702128 L28.4553191,23.4765957 L28.6468085,21.4085106 L25.4680851,21.0638298 L25.4680851,18.3829787 L28.9914894,18.7276596 L29.1829787,16.6595745 L25.4680851,16.2765957 L25.4680851,13.5574468 L29.4510638,13.9404255 L29.6425532,11.8723404 L25.4680851,11.4893617 L25.4680851,8.77021277 L29.9106383,9.22978723 L30.1021277,7.16170213 L25.4297872,6.70212766 C25.2765957,5.70638298 24.4340426,4.9787234 23.4382979,4.9787234 L12.4468085,4.9787234 L12.7148936,2.29787234 L33.7787234,4.40425532 L31.0595745,31.6723404 Z" id="Shape" fill="#444444"></path>
            </g>
        </g>
    </g>
</svg>